Session Name,Template,Session Date,Activation Date,Location,Participant,Session Facilitator ,Session Owner,Subject
Session Name,Template,Session Date,Planned Activation Date,Location,Participants,Facilitator,Owners,Subjects
FY19 : Aadesh_T35286_GMC_SM_MM_JM_CS,Compensation Clustering - V1,12-04-2019,12-04-2019,Virtual,6010718|T35286,AdminCB2,T35286,T33480
FY19 : Aadesh_T35286_GMC_SM_MM_JM_CS,Compensation Clustering - V1,12-04-2019,12-04-2019,Virtual,6010718|T35286,AdminCB2,T35286,T34069
FY19 : Aadesh_T35286_GMC_SM_MM_JM_CS,Compensation Clustering - V1,12-04-2019,12-04-2019,Virtual,6010718|T35286,AdminCB2,T35286,T81150
FY19 : Aadesh_T35286_GMC_SM_MM_JM_CS,Compensation Clustering - V1,12-04-2019,12-04-2019,Virtual,6010718|T35286,AdminCB2,T35286,6015867
FY19 : Aadesh_T35286_GMC_SM_MM_JM_CS,Compensation Clustering - V1,12-04-2019,12-04-2019,Virtual,6010718|T35286,AdminCB2,T35286,6004760
FY19 : Aadesh_T35286_GMC_SM_MM_JM_CS,Compensation Clustering - V1,12-04-2019,12-04-2019,Virtual,6010718|T35286,AdminCB2,T35286,6007833
FY19 : Aadesh_T35286_GMC_SM_MM_JM_CS,Compensation Clustering - V1,12-04-2019,12-04-2019,Virtual,6010718|T35286,AdminCB2,T35286,6010916
FY19 : Aadesh_T35286_GMC_SM_MM_JM_CS,Compensation Clustering - V1,12-04-2019,12-04-2019,Virtual,6010718|T35286,AdminCB2,T35286,T35561
FY19 : Aadesh_T35286_GMC_SM_MM_JM_CS,Compensation Clustering - V1,12-04-2019,12-04-2019,Virtual,6010718|T35286,AdminCB2,T35286,T13396
FY19 : Aadesh_T35286_GMC_SM_MM_JM_CS,Compensation Clustering - V1,12-04-2019,12-04-2019,Virtual,6010718|T35286,AdminCB2,T35286,T36045
FY19 : Aadesh_T35286_GMC_SM_MM_JM_CS,Compensation Clustering - V1,12-04-2019,12-04-2019,Virtual,6010718|T35286,AdminCB2,T35286,6015771
FY19 : Aadesh_T35286_GMC_SM_MM_JM_CS,Compensation Clustering - V1,12-04-2019,12-04-2019,Virtual,6010718|T35286,AdminCB2,T35286,6014889
FY19 : Aadesh_T35286_GMC_SM_MM_JM_CS,Compensation Clustering - V1,12-04-2019,12-04-2019,Virtual,6010718|T35286,AdminCB2,T35286,T13102
FY19 : Aadesh_T35286_GMC_SM_MM_JM_CS,Compensation Clustering - V1,12-04-2019,12-04-2019,Virtual,6010718|T35286,AdminCB2,T35286,T34151
FY19 : Aadesh_T35286_GMC_SM_MM_JM_CS,Compensation Clustering - V1,12-04-2019,12-04-2019,Virtual,6010718|T35286,AdminCB2,T35286,6011611
FY19 : Aadesh_T35286_GMC_SM_MM_JM_CS,Compensation Clustering - V1,12-04-2019,12-04-2019,Virtual,6010718|T35286,AdminCB2,T35286,6004429
FY19 : Aadesh_T35286_GMC_SM_MM_JM_CS,Compensation Clustering - V1,12-04-2019,12-04-2019,Virtual,6010718|T35286,AdminCB2,T35286,6022015
FY19 : Aadesh_T35286_GMC_SM_MM_JM_CS,Compensation Clustering - V1,12-04-2019,12-04-2019,Virtual,6010718|T35286,AdminCB2,T35286,T36731
FY19 : Aadesh_T35286_GMC_SM_MM_JM_CS,Compensation Clustering - V1,12-04-2019,12-04-2019,Virtual,6010718|T35286,AdminCB2,T35286,6011786
FY19 : Aadesh_T35286_GMC_SM_MM_JM_CS,Compensation Clustering - V1,12-04-2019,12-04-2019,Virtual,6010718|T35286,AdminCB2,T35286,T80605
FY19 : Aadesh_T35286_GMC_SM_MM_JM_CS,Compensation Clustering - V1,12-04-2019,12-04-2019,Virtual,6010718|T35286,AdminCB2,T35286,6013370
FY19 : Aadesh_T35286_GMC_SM_MM_JM_CS,Compensation Clustering - V1,12-04-2019,12-04-2019,Virtual,6010718|T35286,AdminCB2,T35286,6012664
FY19 : Aadesh_T35286_GMC_SM_MM_JM_CS,Compensation Clustering - V1,12-04-2019,12-04-2019,Virtual,6010718|T35286,AdminCB2,T35286,6013032
FY19 : Aadesh_T35286_GMC_SM_MM_JM_CS,Compensation Clustering - V1,12-04-2019,12-04-2019,Virtual,6010718|T35286,AdminCB2,T35286,6011771
FY19 : Aadesh_T35286_GMC_SM_MM_JM_CS,Compensation Clustering - V1,12-04-2019,12-04-2019,Virtual,6010718|T35286,AdminCB2,T35286,6012235
FY19 : Aadesh_T35286_GMC_SM_MM_JM_CS,Compensation Clustering - V1,12-04-2019,12-04-2019,Virtual,6010718|T35286,AdminCB2,T35286,6006547
FY19 : Aadesh_T35286_GMC_SM_MM_JM_CS,Compensation Clustering - V1,12-04-2019,12-04-2019,Virtual,6010718|T35286,AdminCB2,T35286,T22104
FY19 : Aadesh_T35286_GMC_SM_MM_JM_CS,Compensation Clustering - V1,12-04-2019,12-04-2019,Virtual,6010718|T35286,AdminCB2,T35286,6014931
FY19 : Aadesh_T35286_GMC_SM_MM_JM_CS,Compensation Clustering - V1,12-04-2019,12-04-2019,Virtual,6010718|T35286,AdminCB2,T35286,6012122
FY19 : Aadesh_T35286_GMC_SM_MM_JM_CS,Compensation Clustering - V1,12-04-2019,12-04-2019,Virtual,6010718|T35286,AdminCB2,T35286,T34149
FY19 : Aadesh_T35286_GMC_SM_MM_JM_CS,Compensation Clustering - V1,12-04-2019,12-04-2019,Virtual,6010718|T35286,AdminCB2,T35286,6007747
FY19 : Aadesh_T35286_GMC_SM_MM_JM_CS,Compensation Clustering - V1,12-04-2019,12-04-2019,Virtual,6010718|T35286,AdminCB2,T35286,T36672
FY19 : Aadesh_T35286_GMC_SM_MM_JM_CS,Compensation Clustering - V1,12-04-2019,12-04-2019,Virtual,6010718|T35286,AdminCB2,T35286,6011373
FY19 : Aadesh_T35286_GMC_SM_MM_JM_CS,Compensation Clustering - V1,12-04-2019,12-04-2019,Virtual,6010718|T35286,AdminCB2,T35286,6012124
FY19 : Aadesh_T35286_GMC_SM_MM_JM_CS,Compensation Clustering - V1,12-04-2019,12-04-2019,Virtual,6010718|T35286,AdminCB2,T35286,6005077
FY19 : Aadesh_T35286_GMC_SM_MM_JM_CS,Compensation Clustering - V1,12-04-2019,12-04-2019,Virtual,6010718|T35286,AdminCB2,T35286,6008702
FY19 : Aadesh_T35286_GMC_SM_MM_JM_CS,Compensation Clustering - V1,12-04-2019,12-04-2019,Virtual,6010718|T35286,AdminCB2,T35286,6012020
FY19 : Aadesh_T35286_GMC_SM_MM_JM_CS,Compensation Clustering - V1,12-04-2019,12-04-2019,Virtual,6010718|T35286,AdminCB2,T35286,6011695
FY19 : Aadesh_T35286_GMC_SM_MM_JM_CS,Compensation Clustering - V1,12-04-2019,12-04-2019,Virtual,6010718|T35286,AdminCB2,T35286,6012283
FY19 : Aadesh_T35286_GMC_SM_MM_JM_CS,Compensation Clustering - V1,12-04-2019,12-04-2019,Virtual,6010718|T35286,AdminCB2,T35286,T35588
FY19 : Aadesh_T35286_GMC_SM_MM_JM_CS,Compensation Clustering - V1,12-04-2019,12-04-2019,Virtual,6010718|T35286,AdminCB2,T35286,6002188
FY19 : Aadesh_T35286_GMC_SM_MM_JM_CS,Compensation Clustering - V1,12-04-2019,12-04-2019,Virtual,6010718|T35286,AdminCB2,T35286,T34394
FY19 : Aadesh_T35286_GMC_SM_MM_JM_CS,Compensation Clustering - V1,12-04-2019,12-04-2019,Virtual,6010718|T35286,AdminCB2,T35286,T34575
FY19 : Aadesh_T35286_GMC_SM_MM_JM_CS,Compensation Clustering - V1,12-04-2019,12-04-2019,Virtual,6010718|T35286,AdminCB2,T35286,6011962
FY19 : Aadesh_T35286_GMC_SM_MM_JM_CS,Compensation Clustering - V1,12-04-2019,12-04-2019,Virtual,6010718|T35286,AdminCB2,T35286,6009620
FY19 : Aadesh_T35286_GMC_SM_MM_JM_CS,Compensation Clustering - V1,12-04-2019,12-04-2019,Virtual,6010718|T35286,AdminCB2,T35286,6007769
FY19 : Aadesh_T35286_GMC_SM_MM_JM_CS,Compensation Clustering - V1,12-04-2019,12-04-2019,Virtual,6010718|T35286,AdminCB2,T35286,6011642
FY19 : Aadesh_T35286_GMC_SM_MM_JM_CS,Compensation Clustering - V1,12-04-2019,12-04-2019,Virtual,6010718|T35286,AdminCB2,T35286,6013248
FY19 : Aadesh_T35286_GMC_SM_MM_JM_CS,Compensation Clustering - V1,12-04-2019,12-04-2019,Virtual,6010718|T35286,AdminCB2,T35286,6011692
FY19 : Aadesh_T35286_GMC_SM_MM_JM_CS,Compensation Clustering - V1,12-04-2019,12-04-2019,Virtual,6010718|T35286,AdminCB2,T35286,6015965
FY19 : Aadesh_T35286_GMC_SM_MM_JM_CS,Compensation Clustering - V1,12-04-2019,12-04-2019,Virtual,6010718|T35286,AdminCB2,T35286,6009125
FY19 : Aadesh_T35286_GMC_SM_MM_JM_CS,Compensation Clustering - V1,12-04-2019,12-04-2019,Virtual,6010718|T35286,AdminCB2,T35286,6022245
FY19 : Aadesh_T35286_GMC_SM_MM_JM_CS,Compensation Clustering - V1,12-04-2019,12-04-2019,Virtual,6010718|T35286,AdminCB2,T35286,T81231
FY19 : Aadesh_T35286_GMC_SM_MM_JM_CS,Compensation Clustering - V1,12-04-2019,12-04-2019,Virtual,6010718|T35286,AdminCB2,T35286,6022231
FY19 : Aadesh_T35286_GMC_SM_MM_JM_CS,Compensation Clustering - V1,12-04-2019,12-04-2019,Virtual,6010718|T35286,AdminCB2,T35286,6011893
FY19 : Aadesh_T35286_GMC_SM_MM_JM_CS,Compensation Clustering - V1,12-04-2019,12-04-2019,Virtual,6010718|T35286,AdminCB2,T35286,6015025
FY19 : Aadesh_T35286_GMC_SM_MM_JM_CS,Compensation Clustering - V1,12-04-2019,12-04-2019,Virtual,6010718|T35286,AdminCB2,T35286,6022134
FY19 : Aadesh_T35286_GMC_SM_MM_JM_CS,Compensation Clustering - V1,12-04-2019,12-04-2019,Virtual,6010718|T35286,AdminCB2,T35286,6004496
FY19 : Aadesh_T35286_GMC_SM_MM_JM_CS,Compensation Clustering - V1,12-04-2019,12-04-2019,Virtual,6010718|T35286,AdminCB2,T35286,6009005
FY19 : Aadesh_T35286_GMC_SM_MM_JM_CS,Compensation Clustering - V1,12-04-2019,12-04-2019,Virtual,6010718|T35286,AdminCB2,T35286,T31729
FY19 : Aadesh_T35286_GMC_SM_MM_JM_CS,Compensation Clustering - V1,12-04-2019,12-04-2019,Virtual,6010718|T35286,AdminCB2,T35286,6004754
FY19 : Aadesh_T35286_GMC_SM_MM_JM_CS,Compensation Clustering - V1,12-04-2019,12-04-2019,Virtual,6010718|T35286,AdminCB2,T35286,6011593
