Session Name,Template,Session Date,Activation Date,Location,Participant,Session Facilitator ,Session Owner,Subject
Session Name,Template,Session Date,Planned Activation Date,Location,Participants,Facilitator,Owners,Subjects
FY19 : Aadesh_T35286_GMC_SM_MM_JM_HR,Compensation Clustering - V1,07-04-2019,07-04-2019,Virtual,6010718|T35286,AdminCB2,T35286,6007333
FY19 : Aadesh_T35286_GMC_SM_MM_JM_HR,Compensation Clustering - V1,07-04-2019,07-04-2019,Virtual,6010718|T35286,AdminCB2,T35286,T33626
FY19 : Aadesh_T35286_GMC_SM_MM_JM_HR,Compensation Clustering - V1,07-04-2019,07-04-2019,Virtual,6010718|T35286,AdminCB2,T35286,6002267
FY19 : Aadesh_T35286_GMC_SM_MM_JM_HR,Compensation Clustering - V1,07-04-2019,07-04-2019,Virtual,6010718|T35286,AdminCB2,T35286,6010874
FY19 : Aadesh_T35286_GMC_SM_MM_JM_HR,Compensation Clustering - V1,07-04-2019,07-04-2019,Virtual,6010718|T35286,AdminCB2,T35286,T36753
FY19 : Aadesh_T35286_GMC_SM_MM_JM_HR,Compensation Clustering - V1,07-04-2019,07-04-2019,Virtual,6010718|T35286,AdminCB2,T35286,T36081
FY19 : Aadesh_T35286_GMC_SM_MM_JM_HR,Compensation Clustering - V1,07-04-2019,07-04-2019,Virtual,6010718|T35286,AdminCB2,T35286,6003529
FY19 : Aadesh_T35286_GMC_SM_MM_JM_HR,Compensation Clustering - V1,07-04-2019,07-04-2019,Virtual,6010718|T35286,AdminCB2,T35286,6003424
FY19 : Aadesh_T35286_GMC_SM_MM_JM_HR,Compensation Clustering - V1,07-04-2019,07-04-2019,Virtual,6010718|T35286,AdminCB2,T35286,6010906
FY19 : Aadesh_T35286_GMC_SM_MM_JM_HR,Compensation Clustering - V1,07-04-2019,07-04-2019,Virtual,6010718|T35286,AdminCB2,T35286,T4339
FY19 : Aadesh_T35286_GMC_SM_MM_JM_HR,Compensation Clustering - V1,07-04-2019,07-04-2019,Virtual,6010718|T35286,AdminCB2,T35286,6013852
FY19 : Aadesh_T35286_GMC_SM_MM_JM_HR,Compensation Clustering - V1,07-04-2019,07-04-2019,Virtual,6010718|T35286,AdminCB2,T35286,6007592
FY19 : Aadesh_T35286_GMC_SM_MM_JM_HR,Compensation Clustering - V1,07-04-2019,07-04-2019,Virtual,6010718|T35286,AdminCB2,T35286,T16388
FY19 : Aadesh_T35286_GMC_SM_MM_JM_HR,Compensation Clustering - V1,07-04-2019,07-04-2019,Virtual,6010718|T35286,AdminCB2,T35286,6004396
FY19 : Aadesh_T35286_GMC_SM_MM_JM_HR,Compensation Clustering - V1,07-04-2019,07-04-2019,Virtual,6010718|T35286,AdminCB2,T35286,6003692
FY19 : Aadesh_T35286_GMC_SM_MM_JM_HR,Compensation Clustering - V1,07-04-2019,07-04-2019,Virtual,6010718|T35286,AdminCB2,T35286,6012337
FY19 : Aadesh_T35286_GMC_SM_MM_JM_HR,Compensation Clustering - V1,07-04-2019,07-04-2019,Virtual,6010718|T35286,AdminCB2,T35286,6002846
FY19 : Aadesh_T35286_GMC_SM_MM_JM_HR,Compensation Clustering - V1,07-04-2019,07-04-2019,Virtual,6010718|T35286,AdminCB2,T35286,6004214
FY19 : Aadesh_T35286_GMC_SM_MM_JM_HR,Compensation Clustering - V1,07-04-2019,07-04-2019,Virtual,6010718|T35286,AdminCB2,T35286,6011303
FY19 : Aadesh_T35286_GMC_SM_MM_JM_HR,Compensation Clustering - V1,07-04-2019,07-04-2019,Virtual,6010718|T35286,AdminCB2,T35286,6007109
FY19 : Aadesh_T35286_GMC_SM_MM_JM_HR,Compensation Clustering - V1,07-04-2019,07-04-2019,Virtual,6010718|T35286,AdminCB2,T35286,6006635
FY19 : Aadesh_T35286_GMC_SM_MM_JM_HR,Compensation Clustering - V1,07-04-2019,07-04-2019,Virtual,6010718|T35286,AdminCB2,T35286,6003771
FY19 : Aadesh_T35286_GMC_SM_MM_JM_HR,Compensation Clustering - V1,07-04-2019,07-04-2019,Virtual,6010718|T35286,AdminCB2,T35286,T34825
FY19 : Aadesh_T35286_GMC_SM_MM_JM_HR,Compensation Clustering - V1,07-04-2019,07-04-2019,Virtual,6010718|T35286,AdminCB2,T35286,6005280
FY19 : Aadesh_T35286_GMC_SM_MM_JM_HR,Compensation Clustering - V1,07-04-2019,07-04-2019,Virtual,6010718|T35286,AdminCB2,T35286,6006389
FY19 : Aadesh_T35286_GMC_SM_MM_JM_HR,Compensation Clustering - V1,07-04-2019,07-04-2019,Virtual,6010718|T35286,AdminCB2,T35286,6006289
FY19 : Aadesh_T35286_GMC_SM_MM_JM_HR,Compensation Clustering - V1,07-04-2019,07-04-2019,Virtual,6010718|T35286,AdminCB2,T35286,6006147
FY19 : Aadesh_T35286_GMC_SM_MM_JM_HR,Compensation Clustering - V1,07-04-2019,07-04-2019,Virtual,6010718|T35286,AdminCB2,T35286,6013615
FY19 : Aadesh_T35286_GMC_SM_MM_JM_HR,Compensation Clustering - V1,07-04-2019,07-04-2019,Virtual,6010718|T35286,AdminCB2,T35286,6004471
FY19 : Aadesh_T35286_GMC_SM_MM_JM_HR,Compensation Clustering - V1,07-04-2019,07-04-2019,Virtual,6010718|T35286,AdminCB2,T35286,T34864
FY19 : Aadesh_T35286_GMC_SM_MM_JM_HR,Compensation Clustering - V1,07-04-2019,07-04-2019,Virtual,6010718|T35286,AdminCB2,T35286,6000792
FY19 : Aadesh_T35286_GMC_SM_MM_JM_HR,Compensation Clustering - V1,07-04-2019,07-04-2019,Virtual,6010718|T35286,AdminCB2,T35286,6016083
FY19 : Aadesh_T35286_GMC_SM_MM_JM_HR,Compensation Clustering - V1,07-04-2019,07-04-2019,Virtual,6010718|T35286,AdminCB2,T35286,T36106
FY19 : Aadesh_T35286_GMC_SM_MM_JM_HR,Compensation Clustering - V1,07-04-2019,07-04-2019,Virtual,6010718|T35286,AdminCB2,T35286,6016077
FY19 : Aadesh_T35286_GMC_SM_MM_JM_HR,Compensation Clustering - V1,07-04-2019,07-04-2019,Virtual,6010718|T35286,AdminCB2,T35286,T33684
FY19 : Aadesh_T35286_GMC_SM_MM_JM_HR,Compensation Clustering - V1,07-04-2019,07-04-2019,Virtual,6010718|T35286,AdminCB2,T35286,6004875
FY19 : Aadesh_T35286_GMC_SM_MM_JM_HR,Compensation Clustering - V1,07-04-2019,07-04-2019,Virtual,6010718|T35286,AdminCB2,T35286,6004518
FY19 : Aadesh_T35286_GMC_SM_MM_JM_HR,Compensation Clustering - V1,07-04-2019,07-04-2019,Virtual,6010718|T35286,AdminCB2,T35286,6006462
FY19 : Aadesh_T35286_GMC_SM_MM_JM_HR,Compensation Clustering - V1,07-04-2019,07-04-2019,Virtual,6010718|T35286,AdminCB2,T35286,6009685
FY19 : Aadesh_T35286_GMC_SM_MM_JM_HR,Compensation Clustering - V1,07-04-2019,07-04-2019,Virtual,6010718|T35286,AdminCB2,T35286,6015942
FY19 : Aadesh_T35286_GMC_SM_MM_JM_HR,Compensation Clustering - V1,07-04-2019,07-04-2019,Virtual,6010718|T35286,AdminCB2,T35286,6012067
FY19 : Aadesh_T35286_GMC_SM_MM_JM_HR,Compensation Clustering - V1,07-04-2019,07-04-2019,Virtual,6010718|T35286,AdminCB2,T35286,6002939
FY19 : Aadesh_T35286_GMC_SM_MM_JM_HR,Compensation Clustering - V1,07-04-2019,07-04-2019,Virtual,6010718|T35286,AdminCB2,T35286,6004456
FY19 : Aadesh_T35286_GMC_SM_MM_JM_HR,Compensation Clustering - V1,07-04-2019,07-04-2019,Virtual,6010718|T35286,AdminCB2,T35286,6015939
FY19 : Aadesh_T35286_GMC_SM_MM_JM_HR,Compensation Clustering - V1,07-04-2019,07-04-2019,Virtual,6010718|T35286,AdminCB2,T35286,6016066
FY19 : Aadesh_T35286_GMC_SM_MM_JM_HR,Compensation Clustering - V1,07-04-2019,07-04-2019,Virtual,6010718|T35286,AdminCB2,T35286,T31303
FY19 : Aadesh_T35286_GMC_SM_MM_JM_HR,Compensation Clustering - V1,07-04-2019,07-04-2019,Virtual,6010718|T35286,AdminCB2,T35286,6007248
FY19 : Aadesh_T35286_GMC_SM_MM_JM_HR,Compensation Clustering - V1,07-04-2019,07-04-2019,Virtual,6010718|T35286,AdminCB2,T35286,6022340
FY19 : Aadesh_T35286_GMC_SM_MM_JM_HR,Compensation Clustering - V1,07-04-2019,07-04-2019,Virtual,6010718|T35286,AdminCB2,T35286,6012917
FY19 : Aadesh_T35286_GMC_SM_MM_JM_HR,Compensation Clustering - V1,07-04-2019,07-04-2019,Virtual,6010718|T35286,AdminCB2,T35286,6015572
FY19 : Aadesh_T35286_GMC_SM_MM_JM_HR,Compensation Clustering - V1,07-04-2019,07-04-2019,Virtual,6010718|T35286,AdminCB2,T35286,T12104
FY19 : Aadesh_T35286_GMC_SM_MM_JM_HR,Compensation Clustering - V1,07-04-2019,07-04-2019,Virtual,6010718|T35286,AdminCB2,T35286,6012724
FY19 : Aadesh_T35286_GMC_SM_MM_JM_HR,Compensation Clustering - V1,07-04-2019,07-04-2019,Virtual,6010718|T35286,AdminCB2,T35286,6010061
FY19 : Aadesh_T35286_GMC_SM_MM_JM_HR,Compensation Clustering - V1,07-04-2019,07-04-2019,Virtual,6010718|T35286,AdminCB2,T35286,6002945
FY19 : Aadesh_T35286_GMC_SM_MM_JM_HR,Compensation Clustering - V1,07-04-2019,07-04-2019,Virtual,6010718|T35286,AdminCB2,T35286,6010159
FY19 : Aadesh_T35286_GMC_SM_MM_JM_HR,Compensation Clustering - V1,07-04-2019,07-04-2019,Virtual,6010718|T35286,AdminCB2,T35286,6015217
FY19 : Aadesh_T35286_GMC_SM_MM_JM_HR,Compensation Clustering - V1,07-04-2019,07-04-2019,Virtual,6010718|T35286,AdminCB2,T35286,6002372
FY19 : Aadesh_T35286_GMC_SM_MM_JM_HR,Compensation Clustering - V1,07-04-2019,07-04-2019,Virtual,6010718|T35286,AdminCB2,T35286,6014412
FY19 : Aadesh_T35286_GMC_SM_MM_JM_HR,Compensation Clustering - V1,07-04-2019,07-04-2019,Virtual,6010718|T35286,AdminCB2,T35286,6012443
FY19 : Aadesh_T35286_GMC_SM_MM_JM_HR,Compensation Clustering - V1,07-04-2019,07-04-2019,Virtual,6010718|T35286,AdminCB2,T35286,6010230
FY19 : Aadesh_T35286_GMC_SM_MM_JM_HR,Compensation Clustering - V1,07-04-2019,07-04-2019,Virtual,6010718|T35286,AdminCB2,T35286,6015770
FY19 : Aadesh_T35286_GMC_SM_MM_JM_HR,Compensation Clustering - V1,07-04-2019,07-04-2019,Virtual,6010718|T35286,AdminCB2,T35286,6009489
FY19 : Aadesh_T35286_GMC_SM_MM_JM_HR,Compensation Clustering - V1,07-04-2019,07-04-2019,Virtual,6010718|T35286,AdminCB2,T35286,6006741
FY19 : Aadesh_T35286_GMC_SM_MM_JM_HR,Compensation Clustering - V1,07-04-2019,07-04-2019,Virtual,6010718|T35286,AdminCB2,T35286,6005192
FY19 : Aadesh_T35286_GMC_SM_MM_JM_HR,Compensation Clustering - V1,07-04-2019,07-04-2019,Virtual,6010718|T35286,AdminCB2,T35286,T36104
FY19 : Aadesh_T35286_GMC_SM_MM_JM_HR,Compensation Clustering - V1,07-04-2019,07-04-2019,Virtual,6010718|T35286,AdminCB2,T35286,T33500
FY19 : Aadesh_T35286_GMC_SM_MM_JM_HR,Compensation Clustering - V1,07-04-2019,07-04-2019,Virtual,6010718|T35286,AdminCB2,T35286,6004343
FY19 : Aadesh_T35286_GMC_SM_MM_JM_HR,Compensation Clustering - V1,07-04-2019,07-04-2019,Virtual,6010718|T35286,AdminCB2,T35286,6013656
FY19 : Aadesh_T35286_GMC_SM_MM_JM_HR,Compensation Clustering - V1,07-04-2019,07-04-2019,Virtual,6010718|T35286,AdminCB2,T35286,6010718
FY19 : Aadesh_T35286_GMC_SM_MM_JM_HR,Compensation Clustering - V1,07-04-2019,07-04-2019,Virtual,6010718|T35286,AdminCB2,T35286,6010697
FY19 : Aadesh_T35286_GMC_SM_MM_JM_HR,Compensation Clustering - V1,07-04-2019,07-04-2019,Virtual,6010718|T35286,AdminCB2,T35286,6009854
FY19 : Aadesh_T35286_GMC_SM_MM_JM_HR,Compensation Clustering - V1,07-04-2019,07-04-2019,Virtual,6010718|T35286,AdminCB2,T35286,6012407
FY19 : Aadesh_T35286_GMC_SM_MM_JM_HR,Compensation Clustering - V1,07-04-2019,07-04-2019,Virtual,6010718|T35286,AdminCB2,T35286,6015059
FY19 : Aadesh_T35286_GMC_SM_MM_JM_HR,Compensation Clustering - V1,07-04-2019,07-04-2019,Virtual,6010718|T35286,AdminCB2,T35286,6015701
FY19 : Aadesh_T35286_GMC_SM_MM_JM_HR,Compensation Clustering - V1,07-04-2019,07-04-2019,Virtual,6010718|T35286,AdminCB2,T35286,6012825
FY19 : Aadesh_T35286_GMC_SM_MM_JM_HR,Compensation Clustering - V1,07-04-2019,07-04-2019,Virtual,6010718|T35286,AdminCB2,T35286,6015625
FY19 : Aadesh_T35286_GMC_SM_MM_JM_HR,Compensation Clustering - V1,07-04-2019,07-04-2019,Virtual,6010718|T35286,AdminCB2,T35286,6007663
FY19 : Aadesh_T35286_GMC_SM_MM_JM_HR,Compensation Clustering - V1,07-04-2019,07-04-2019,Virtual,6010718|T35286,AdminCB2,T35286,6010610
FY19 : Aadesh_T35286_GMC_SM_MM_JM_HR,Compensation Clustering - V1,07-04-2019,07-04-2019,Virtual,6010718|T35286,AdminCB2,T35286,T103959
FY19 : Aadesh_T35286_GMC_SM_MM_JM_HR,Compensation Clustering - V1,07-04-2019,07-04-2019,Virtual,6010718|T35286,AdminCB2,T35286,6008041
FY19 : Aadesh_T35286_GMC_SM_MM_JM_HR,Compensation Clustering - V1,07-04-2019,07-04-2019,Virtual,6010718|T35286,AdminCB2,T35286,6002851
FY19 : Aadesh_T35286_GMC_SM_MM_JM_HR,Compensation Clustering - V1,07-04-2019,07-04-2019,Virtual,6010718|T35286,AdminCB2,T35286,6007886
FY19 : Aadesh_T35286_GMC_SM_MM_JM_HR,Compensation Clustering - V1,07-04-2019,07-04-2019,Virtual,6010718|T35286,AdminCB2,T35286,6004104
FY19 : Aadesh_T35286_GMC_SM_MM_JM_HR,Compensation Clustering - V1,07-04-2019,07-04-2019,Virtual,6010718|T35286,AdminCB2,T35286,6009677
FY19 : Aadesh_T35286_GMC_SM_MM_JM_HR,Compensation Clustering - V1,07-04-2019,07-04-2019,Virtual,6010718|T35286,AdminCB2,T35286,6001953
FY19 : Aadesh_T35286_GMC_SM_MM_JM_HR,Compensation Clustering - V1,07-04-2019,07-04-2019,Virtual,6010718|T35286,AdminCB2,T35286,6022025
FY19 : Aadesh_T35286_GMC_SM_MM_JM_HR,Compensation Clustering - V1,07-04-2019,07-04-2019,Virtual,6010718|T35286,AdminCB2,T35286,6012216
FY19 : Aadesh_T35286_GMC_SM_MM_JM_HR,Compensation Clustering - V1,07-04-2019,07-04-2019,Virtual,6010718|T35286,AdminCB2,T35286,6013262
FY19 : Aadesh_T35286_GMC_SM_MM_JM_HR,Compensation Clustering - V1,07-04-2019,07-04-2019,Virtual,6010718|T35286,AdminCB2,T35286,6012898
FY19 : Aadesh_T35286_GMC_SM_MM_JM_HR,Compensation Clustering - V1,07-04-2019,07-04-2019,Virtual,6010718|T35286,AdminCB2,T35286,T13074
FY19 : Aadesh_T35286_GMC_SM_MM_JM_HR,Compensation Clustering - V1,07-04-2019,07-04-2019,Virtual,6010718|T35286,AdminCB2,T35286,6001755
FY19 : Aadesh_T35286_GMC_SM_MM_JM_HR,Compensation Clustering - V1,07-04-2019,07-04-2019,Virtual,6010718|T35286,AdminCB2,T35286,6015997
FY19 : Aadesh_T35286_GMC_SM_MM_JM_HR,Compensation Clustering - V1,07-04-2019,07-04-2019,Virtual,6010718|T35286,AdminCB2,T35286,6005471
FY19 : Aadesh_T35286_GMC_SM_MM_JM_HR,Compensation Clustering - V1,07-04-2019,07-04-2019,Virtual,6010718|T35286,AdminCB2,T35286,6006952
FY19 : Aadesh_T35286_GMC_SM_MM_JM_HR,Compensation Clustering - V1,07-04-2019,07-04-2019,Virtual,6010718|T35286,AdminCB2,T35286,6013048
FY19 : Aadesh_T35286_GMC_SM_MM_JM_HR,Compensation Clustering - V1,07-04-2019,07-04-2019,Virtual,6010718|T35286,AdminCB2,T35286,6011097
FY19 : Aadesh_T35286_GMC_SM_MM_JM_HR,Compensation Clustering - V1,07-04-2019,07-04-2019,Virtual,6010718|T35286,AdminCB2,T35286,6013620
FY19 : Aadesh_T35286_GMC_SM_MM_JM_HR,Compensation Clustering - V1,07-04-2019,07-04-2019,Virtual,6010718|T35286,AdminCB2,T35286,6010815
FY19 : Aadesh_T35286_GMC_SM_MM_JM_HR,Compensation Clustering - V1,07-04-2019,07-04-2019,Virtual,6010718|T35286,AdminCB2,T35286,6012951
FY19 : Aadesh_T35286_GMC_SM_MM_JM_HR,Compensation Clustering - V1,07-04-2019,07-04-2019,Virtual,6010718|T35286,AdminCB2,T35286,T25009
FY19 : Aadesh_T35286_GMC_SM_MM_JM_HR,Compensation Clustering - V1,07-04-2019,07-04-2019,Virtual,6010718|T35286,AdminCB2,T35286,6010096
FY19 : Aadesh_T35286_GMC_SM_MM_JM_HR,Compensation Clustering - V1,07-04-2019,07-04-2019,Virtual,6010718|T35286,AdminCB2,T35286,6004161
FY19 : Aadesh_T35286_GMC_SM_MM_JM_HR,Compensation Clustering - V1,07-04-2019,07-04-2019,Virtual,6010718|T35286,AdminCB2,T35286,6004357
FY19 : Aadesh_T35286_GMC_SM_MM_JM_HR,Compensation Clustering - V1,07-04-2019,07-04-2019,Virtual,6010718|T35286,AdminCB2,T35286,6014415
FY19 : Aadesh_T35286_GMC_SM_MM_JM_HR,Compensation Clustering - V1,07-04-2019,07-04-2019,Virtual,6010718|T35286,AdminCB2,T35286,6022122
FY19 : Aadesh_T35286_GMC_SM_MM_JM_HR,Compensation Clustering - V1,07-04-2019,07-04-2019,Virtual,6010718|T35286,AdminCB2,T35286,6013232
FY19 : Aadesh_T35286_GMC_SM_MM_JM_HR,Compensation Clustering - V1,07-04-2019,07-04-2019,Virtual,6010718|T35286,AdminCB2,T35286,6015597
FY19 : Aadesh_T35286_GMC_SM_MM_JM_HR,Compensation Clustering - V1,07-04-2019,07-04-2019,Virtual,6010718|T35286,AdminCB2,T35286,6011038
FY19 : Aadesh_T35286_GMC_SM_MM_JM_HR,Compensation Clustering - V1,07-04-2019,07-04-2019,Virtual,6010718|T35286,AdminCB2,T35286,6007783
FY19 : Aadesh_T35286_GMC_SM_MM_JM_HR,Compensation Clustering - V1,07-04-2019,07-04-2019,Virtual,6010718|T35286,AdminCB2,T35286,6015897
FY19 : Aadesh_T35286_GMC_SM_MM_JM_HR,Compensation Clustering - V1,07-04-2019,07-04-2019,Virtual,6010718|T35286,AdminCB2,T35286,6006479
FY19 : Aadesh_T35286_GMC_SM_MM_JM_HR,Compensation Clustering - V1,07-04-2019,07-04-2019,Virtual,6010718|T35286,AdminCB2,T35286,6015900
FY19 : Aadesh_T35286_GMC_SM_MM_JM_HR,Compensation Clustering - V1,07-04-2019,07-04-2019,Virtual,6010718|T35286,AdminCB2,T35286,6009873
FY19 : Aadesh_T35286_GMC_SM_MM_JM_HR,Compensation Clustering - V1,07-04-2019,07-04-2019,Virtual,6010718|T35286,AdminCB2,T35286,6005443
FY19 : Aadesh_T35286_GMC_SM_MM_JM_HR,Compensation Clustering - V1,07-04-2019,07-04-2019,Virtual,6010718|T35286,AdminCB2,T35286,6004211
FY19 : Aadesh_T35286_GMC_SM_MM_JM_HR,Compensation Clustering - V1,07-04-2019,07-04-2019,Virtual,6010718|T35286,AdminCB2,T35286,T34848
FY19 : Aadesh_T35286_GMC_SM_MM_JM_HR,Compensation Clustering - V1,07-04-2019,07-04-2019,Virtual,6010718|T35286,AdminCB2,T35286,6003865
FY19 : Aadesh_T35286_GMC_SM_MM_JM_HR,Compensation Clustering - V1,07-04-2019,07-04-2019,Virtual,6010718|T35286,AdminCB2,T35286,6010250
FY19 : Aadesh_T35286_GMC_SM_MM_JM_HR,Compensation Clustering - V1,07-04-2019,07-04-2019,Virtual,6010718|T35286,AdminCB2,T35286,6015556
FY19 : Aadesh_T35286_GMC_SM_MM_JM_HR,Compensation Clustering - V1,07-04-2019,07-04-2019,Virtual,6010718|T35286,AdminCB2,T35286,6007681
FY19 : Aadesh_T35286_GMC_SM_MM_JM_HR,Compensation Clustering - V1,07-04-2019,07-04-2019,Virtual,6010718|T35286,AdminCB2,T35286,6007561
FY19 : Aadesh_T35286_GMC_SM_MM_JM_HR,Compensation Clustering - V1,07-04-2019,07-04-2019,Virtual,6010718|T35286,AdminCB2,T35286,6011197
FY19 : Aadesh_T35286_GMC_SM_MM_JM_HR,Compensation Clustering - V1,07-04-2019,07-04-2019,Virtual,6010718|T35286,AdminCB2,T35286,6001476
FY19 : Aadesh_T35286_GMC_SM_MM_JM_HR,Compensation Clustering - V1,07-04-2019,07-04-2019,Virtual,6010718|T35286,AdminCB2,T35286,6011867
FY19 : Aadesh_T35286_GMC_SM_MM_JM_HR,Compensation Clustering - V1,07-04-2019,07-04-2019,Virtual,6010718|T35286,AdminCB2,T35286,6010323
FY19 : Aadesh_T35286_GMC_SM_MM_JM_HR,Compensation Clustering - V1,07-04-2019,07-04-2019,Virtual,6010718|T35286,AdminCB2,T35286,6004031
FY19 : Aadesh_T35286_GMC_SM_MM_JM_HR,Compensation Clustering - V1,07-04-2019,07-04-2019,Virtual,6010718|T35286,AdminCB2,T35286,6012253
FY19 : Aadesh_T35286_GMC_SM_MM_JM_HR,Compensation Clustering - V1,07-04-2019,07-04-2019,Virtual,6010718|T35286,AdminCB2,T35286,6022522
FY19 : Aadesh_T35286_GMC_SM_MM_JM_HR,Compensation Clustering - V1,07-04-2019,07-04-2019,Virtual,6010718|T35286,AdminCB2,T35286,T104183
FY19 : Aadesh_T35286_GMC_SM_MM_JM_HR,Compensation Clustering - V1,07-04-2019,07-04-2019,Virtual,6010718|T35286,AdminCB2,T35286,6005512
