Username,Employee Status,First Name,Middle Name,Last Name,Business  Email Information Email Address,BU/SSU Description,LOB/Segment Description,Vertical Description,Sub Vertical Description,Entity Description,Reporting Manager User Sys ID,Reporting Manager,BU HR SPOC  Job Relationships User ID,BU HR SPOC  Job Relationships Name,International Region,Facility Country,Facility  Description,Band/Sub Band  Band/Sub Band ID,Job Level,Employment Details Hire Date,Employee Type,Employee Class,Eligibility
Username,Employee Status,First Name,Middle Name,Last Name,Business  Email Information Email Address,BU/SSU Description,LOB/Segment Description,Vertical,Sub Vertical,Entity Description,Reporting Manager User Sys ID,Reporting Manager,BU HR SPOC  Job Relationships User ID,BU HR SPOC  Job Relationships Name,International Region,Facility Country,Facility  Description,Band/Sub Band  Band/Sub Band ID,Job Level,Employment Details Hire Date,Employee Type,Employee Class,Yes
6002331,Terminated,Lokesh,,Mehta,Lokesh.Mehta@tatacommunications.com,Human Resource,Region HR,Americas Region-Americas Region,,Tata Communications (America) Inc.,6012337,"Woodworth, Douglas Matthew",6010718,"Shah, Ishani",Americas,United States,Matawan,B3-2,JM,27-04-2015,Permanent,Employee,Yes
6004455,Terminated,Deepti,,Panwar,Deepti.Panwar@tatacommunications.com,Human Resource,Corporate HR,Talent Management-Talent Management,Talent Management-Talent Management,Tata Communications Limited,6002267,"Dhatariya, Rahul",6010732,"Shah, Nihar Darpan",India,India,N.Delhi-GK1,B3-2,JM,23-06-2014,Permanent,Employee,Yes
T33807,Terminated,Seema,,Mehra,seema.mehra@tatacommunications.com,Human Resource,Corporate HR,Learning & Development-Learning & Development,Leadership & Behavioural Trainin-Leadership & Behavioural Training,Tata Communications Limited,6004904,"Bhatnagar, Vikrant",6010718,"Shah, Ishani",India,India,Mumbai-Fort,B4-1,JM,02-06-2008,Permanent,Employee,Yes
6001470,Terminated,Neelakshi,,Misra,neelakshi.misra@tatacommunications.com,Human Resource,Corporate HR,Compensation & Benefits-Compensation & Benefits,Compensation & Benefits-Compensation & Benefits,Tata Communications Limited,T36081,"Islam, Saif Ul",6010718,"Shah, Ishani",India,India,N.Delhi-GK1,B4-1,JM,18-06-2012,Permanent,Employee,Yes
6002372,Terminated,Anirbaan,,Mukhopadhyay,Anirbaan.Mukhopadhyay@tatacommunications.com,Human Resource,Business HR,Corporte Operations-Corporate Operations,,Tata Communications Limited,T4339,"D'silva, Allwyn",6010718,"Shah, Ishani",India,India,Pune-Dighi,B3-2,JM,18-02-2013,Permanent,Employee,Yes
6012639,Terminated,Shrutkirti,,Kothari,Shrutkirti.Kothari@tatacommunications.com,Human Resource,Business HR,Shared services unit and Product Organizations-Shared services unit and Product Organizations,,Tata Communications Limited,6003771,"Bajwa, Ina",6010718,"Shah, Ishani",India,India,Mumbai - Crescenzo,B3-2,JM,27-06-2017,Permanent,Employee,Yes
6003740,Terminated,Prachi,,Singh,Prachi.Singh@tatacommunications.com,Human Resource,Corporate HR,Organizational Development-Organizational Development,,Tata Communications Limited,6003424,"Gupta, Aman",6010718,"Shah, Ishani",India,India,N.Delhi-GK1,B4-1,JM,16-12-2013,Permanent,Employee,Yes
6004860,Terminated,Velmurugan,,Kanagasabai,velmurugan.kanagasabai@tatacommunications.com,Human Resource,Corporate HR,Human Resource Information Systems (HRIS) & HR Analytics-Human Resource Information Systems (HRIS) & HR Analytics,,Tata Communications Limited,6007592,"Sadashiv, Prashant",6010718,"Shah, Ishani",India,India,Chennai - Prince Info City II,B3-2,JM,01-09-2014,Permanent,Employee,Yes
T36030,Terminated,Urvashi,,Gupta,urvashi.gupta@tatacommunications.com,Human Resource,Business HR,Sales-Sales,,Tata Communications Limited,T36753,"Mehta, Neeti",6010718,"Shah, Ishani",India,India,N.Delhi-GK1,B4-1,JM,24-01-2011,Permanent,Employee,Yes
6012382,Terminated,Pallavi,,Bakshi,Pallavi.Bakshi@tatacommunications.com,Human Resource,Functional Head,"L&D, TM & EE,OD & D&I and Special Projects-L&D, TM & EE,OD & D&I and Special Projects",,Tata Communications Limited,T35286,"Goyal, Aadesh",6010718,"Shah, Ishani",India,India,N.Delhi-GK1,B7-1,SM,02-05-2017,Permanent,Employee,Yes
T35790,Terminated,Renu,,Bidalia,renu.bidalia@tatacommunications.com,Human Resource,Functional Head,"TA,C&B,OD,D&I and BHR-TA,C&B,OD,D&I and BHR",,Tata Communications Limited,T35286,"Goyal, Aadesh",6003771,"Bajwa, Ina",India,India,N.Delhi-Bangla,B7-1,SM,11-10-2010,Permanent,Employee,Yes
T307336,Terminated,Sau Lan,,Ho,saulan.ho@tatacommunications.com,Human Resource,Region HR,APAC Region-APAC Region,,Tata Communications International Pte. Ltd.,T3238,"Chatterjee, Anjali",6003771,"Bajwa, Ina",APAC,Singapore,Singapore,B5-1,MM,12-11-2007,Permanent,Employee,Yes
6011711,Terminated,Shaily,,Kaushik,Shaily.Kaushik@tatacommunications.com,Human Resource,Corporate HR,Human Resource Information Systems (HRIS) & HR Analytics-Human Resource Information Systems (HRIS) & HR Analytics,,Tata Communications Limited,6006635,"Kaul, Vaibhav",6010718,"Shah, Ishani",India,India,N.Delhi-GK1,B3-2,JM,30-01-2017,Permanent,Employee,Yes
6004128,Terminated,Dhurjuti,,Dhibar,Dhurjuti.Dhibar@tatacommunications.com,Human Resource,Business HR,Sales-Sales,,Tata Communications Limited,T36753,"Mehta, Neeti",6010718,"Shah, Ishani",India,India,Mumbai-BKC,B3-2,JM,01-04-2014,Permanent,Employee,Yes
6003597,Terminated,Digant,,Shah,Digant.Shah@tatacommunications.com,Human Resource,Business HR,Segment Organizations-Segment Organizations,Segment Organizations-Segment Organizations,Tata Communications Limited,T36753,"Mehta, Neeti",6004227,"Hariyani, Jayesh",India,India,Mumbai-BKC,B4-2,MM,11-11-2013,,,Yes
6001469,Terminated,Charu,,Pant,charu.pant@tatacommunications.com,Human Resource,Corporate HR,Organizational Development-Organizational Development,Organizational Development-Organizational Development,Tata Communications Limited,6003424,"Gupta, Aman",6004227,"Hariyani, Jayesh",India,India,N.Delhi-GK1,B3-2,JM,18-06-2012,,,Yes
