Username,Employee Status,First Name,Middle Name,Last Name,Business  Email Information Email Address,BU/SSU Description,LOB/Segment Description,Vertical Description,Sub Vertical Description,Entity Description,Reporting Manager User Sys ID,Reporting Manager,BU HR SPOC  Job Relationships User ID,BU HR SPOC  Job Relationships Name,International Region,Facility Country,Facility  Description,Band/Sub Band  Band/Sub Band ID,Job Level,Employment Details Hire Date,Employee Type,Employee Class,Eligibility
6002331,Terminated,Lokesh,,Mehta,Lokesh.Mehta@tatacommunications.com,Human Resource,Region HR,Americas Region-Americas Region,,Tata Communications (America) Inc.,6012337,"Woodworth, Douglas Matthew",6010718,"Shah, Ishani",Americas,United States,Matawan,B3-2,JM,27-04-2015,Permanent,Employee,Yes
6004455,Terminated,Deepti,,Panwar,Deepti.Panwar@tatacommunications.com,Human Resource,Corporate HR,Talent Management-Talent Management,Talent Management-Talent Management,Tata Communications Limited,6002267,"Dhatariya, Rahul",6010732,"Shah, Nihar Darpan",India,India,N.Delhi-GK1,B3-2,JM,23-06-2014,Permanent,Employee,Yes
,,,,,,,,,,,,,,,,,,,,,,,
,,,,,,,,,,,,,,,,,,,,,,,
,,,,,,,,,,,,,,,,,,,,,,,
,,,,,,,,,,,,,,,,,,,,,,,
,,,,,,,,,,,,,,,,,,,,,,,
,,,,,,,,,,,,,,,,,,,,,,,
,,,,,,,,,,,,,,,,,,,,,,,
,,,,,,,,,,,,,,,,,,,,,,,
,,,,,,,,,,,,,,,,,,,,,,,
,,,,,,,,,,,,,,,,,,,,,,,
,,,,,,,,,,,,,,,,,,,,,,,
,,,,,,,,,,,,,,,,,,,,,,,
,,,,,,,,,,,,,,,,,,,,,,,
,,,,,,,,,,,,,,,,,,,,,,,
