Username,Employee Status,First Name,Middle Name,Last Name,Business  Email Information Email Address,BU/SSU Description,LOB/Segment Description,Vertical Description,Sub Vertical Description,Entity Description,Reporting Manager User Sys ID,Reporting Manager,BU HR SPOC  Job Relationships User ID,BU HR SPOC  Job Relationships Name,International Region,Facility Country,Facility  Description,Band/Sub Band  Band/Sub Band ID,Job Level,Employment Details Hire Date,Employee Type,Employee Class,Eligibility
T13402,Active,Haripriya,,Mahalingam,haripriya.m@tatacommunications.com,Finance & Accounts,Revenue Assurance,Revenue Assurance-Revenue Assurance,,Tata Communications Limited,T11501,"A, Kalyani",6015939,"Pal, Priyanju",India,India,BGL-VSB,B3-2,JM,03-Apr-00,Permanent,Employee,Yes
6003920,Active,Jane,Divya,Gnanamalai,Jane.Gnanamalai@tatacommunications.com,TCTSL,Vodafone UK,Projects-Projects,Provisioning & Config Mgmt-Provisioning & Configuration Management,Tata Communications Transformation Services Limited,T80988,"S, Venkatachalam",6004161,"Nair, Sangeetha",India,India,Chennai-Ambatur,B2-1,JM,27-Jan-14,Permanent,Employee,Yes
6012014,Terminated,Kiran,,Jawadala,Kiran.Jawadala@tatacommunications.com,"Digital Infrastructure, Application & Security Services",Global Service Management Centre,GSMC Operations-GSMC Operations,,Tata Communications Limited,T34604,"Rajagopal, Raghunathan",6013048,"Shah, Mitali",India,India,Chennai - Jayant Tech Park,B3-1,JM,14-Mar-17,Permanent,Employee,Yes
6004237,Active,Laxman,Somnath,Nagare,Laxman.Nagare@tatacommunications.com,TCTSL,Telus,Falcon-Falcon,Falcon-Falcon,Tata Communications Transformation Services Limited,6014425,"Kute, Satish Pandharinath",6011097,"Singhal, Neha",India,India,Pune-Dighi,B2-1,JM,05-May-14,Permanent,Employee,Yes
6009105,Active,Neelakantam,,Vijaykumar,Neelakantam.Vijaykumar@tatacommunications.com,TCTSL,Vodafone UK,Fiber Services-Fiber Services,Fiber Services-Fiber Services,Tata Communications Transformation Services Limited,6007001,"Ramamoorthy, Harishankar",6004161,"Nair, Sangeetha",India,India,Chennai-Ambatur,B1-1,JM,22-Feb-16,Permanent,Employee,Yes
6014869,Active,Parijat,,Saha,Parijat.Saha@tatacommunications.com,TCTSL,Canadian Pacific Railways,AutoCAD Drawing-AutoCAD Drawing,AutoCAD Drawing-AutoCAD Drawing,Tata Communications Transformation Services Limited,T81281,"Lotliker, Sajjan",6011097,"Singhal, Neha",India,India,Pune-Dighi,B1-1,JM,04-Jun-18,Permanent,Employee,Yes
6014282,Active,Ruchir,,Bharati,Ruchir.Bharati@tatacommunications.com,Customer Success Group,Sales- India,Government-Government,State Govt. & Smart cities-State Govt. & Smart cities,Tata Communications Limited,6001426,"Jaitly, Sanjiv",6005512,"Bajpai, Sandeep Suresh",India,India,HYD-Madhapur,B4-2,MM,26-Feb-18,Permanent,Employee,Yes
6008666,Terminated,Sakthivel,,Subbarayan,Sakthivel.Subbarayan2@tatacommunications.com,"Digital Infrastructure, Application & Security Services",Global Service Management Centre,GSMC Operations-GSMC Operations,,Tata Communications Limited,T34604,"Rajagopal, Raghunathan",6013048,"Shah, Mitali",India,India,Chennai - Jayant Tech Park,B2-2,JM,01-Feb-16,Permanent,Employee,Yes
6006248,Active,Sangeetha,,Jagadeesan,Sangeetha.Jagadeesan@tatacommunications.com,TCTSL,Vodafone UK,PIM-PIM,,Tata Communications Transformation Services Limited,6007001,"Ramamoorthy, Harishankar",6004161,"Nair, Sangeetha",India,India,Chennai-Ambatur,B1-1,JM,19-Feb-15,Permanent,Employee,Yes
6011699,Active,Sneha,Sharad,Sonawane,Sneha.Sonawane@tatacommunications.com,TCTSL,Telus,Cloud Collaboration & Skype Bus-Cloud Collaboration and Skype Business,,Tata Communications Transformation Services Limited,T81153,"Kulkarni, Amit P",6011097,"Singhal, Neha",India,India,Pune-Dighi,B1-1,JM,23-Jan-17,Permanent,Employee,Yes
