Username,Employee Status,First Name,Middle Name,Last Name,Business  Email Information Email Address,BU/SSU Description,LOB/Segment Description,Vertical Description,Sub Vertical Description,Entity Description,Reporting Manager User Sys ID,Reporting Manager,BU HR SPOC  Job Relationships User ID,BU HR SPOC  Job Relationships Name,International Region,Facility Country,Facility  Description,Band/Sub Band  Band/Sub Band ID,Job Level,Employment Details Hire Date,Employee Type,Employee Class,Eligibility
6001538,Active,Larissa Roberta,,de Melo,larissa.demelo@tatacommunications.com,"Business Collaboration , Mobility & IoT Solutions",Mobility & IoT  Solutions Product  Management,Portfolio management,,Tata Communications (Canada) Limited,6016156,"Erkal, Martin",6010718,"Shah, Ishani",Americas,Canada,Montreal,B4-1,JM,30-07-2012,Permanent,Employee,yes
6001770,Active,Dharshika,,Jaikishan,dharshika.jaikishan@tatacommunications.com,"Business Collaboration , Mobility & IoT Solutions",Mobility & IoT Solutions and Business Development,Solution Management,,Tata Communications International Pte. Ltd.,6011788,"Lassauce, Ludovic Christian Bernard",6010718,"Shah, Ishani",APAC,Singapore,Singapore,B4-1,JM,16-08-2012,Permanent,Employee,yes
6002199,Active,Mourad,,Chelfi,Mourad.Chelfi@tatacommunications.com,"Business Collaboration , Mobility & IoT Solutions",Engineering BCMIoT Sols,Mobility Solutions Technology & Architecture,,Tata Communications (Canada) Limited,T103957,"Boucher, Jean-Pierre",6010718,"Shah, Ishani",Americas,Canada,Montreal,B4-1,JM,07-01-2013,Permanent,Employee,yes
