Username,Employee Status,First Name,Middle Name,Last Name,Business  Email Information Email Address,BU/SSU Description,LOB/Segment Description,Vertical Description,Sub Vertical Description,Entity Description,Reporting Manager User Sys ID,Reporting Manager,BU HR SPOC  Job Relationships User ID,BU HR SPOC  Job Relationships Name,International Region,Facility Country,Facility  Description,Band/Sub Band  Band/Sub Band ID,Job Level,Employment Details Hire Date,Employee Type,Employee Class,Eligibility
6006389,Active,Shikha,,Gupta,Shikha.Gupta@tatacommunications.com,Human Resource,Corporate HR,Global HR Head's Office,,Tata Communications Limited,T35286,"Goyal, Aadesh",6010718,"Shah, Ishani",India,India,N.Delhi-GK1,B3-1,JM,16-03-2015,Permanent,Employee,yes
6010874,Active,Steven,H.,Melamed,Steve.Melamed@tatacommunications.com,Human Resource,Functional Head,"HRIS & HRSS, BHR and RHR",,Tata Communications (America) Inc.,T35286,"Goyal, Aadesh",6003771,"Bajwa, Ina",Americas,United States,Matawan,B7-1,SM,03-10-2016,Permanent,Employee,yes
T3238,Active,Anjali,,Chatterjee,anjali.chatterjee@tatacommunications.com,Human Resource,Functional Head,"TA, C&B and RHR",,Tata Communications Limited,T35286,"Goyal, Aadesh",6003771,"Bajwa, Ina",India,India,Mumbai-BKC,B7-1,SM,01-12-2003,Permanent,Employee,yes
6003529,Active,Mukul,,Kumar,Mukul.Kumar@tatacommunications.com,Human Resource,"Environmental, Occupational Health & Safety","Environmental, Occupational Health & Safety",,Tata Communications Limited,T35286,"Goyal, Aadesh",6003771,"Bajwa, Ina",India,India,N.Delhi-Bangla,B6-1,SM,21-10-2013,Permanent,Employee,yes
