Username,Employee Status,First Name,Middle Name,Last Name,Business  Email Information Email Address,BU/SSU Description,LOB/Segment Description,Vertical Description,Sub Vertical Description,Entity Description,Reporting Manager User Sys ID,Reporting Manager,BU HR SPOC  Job Relationships User ID,BU HR SPOC  Job Relationships Name,International Region,Facility Country,Facility  Description,Band/Sub Band  Band/Sub Band ID,Job Level,Employment Details Hire Date,Employee Type,Employee Class,Eligibility
6002939,Active,Abhinav,,Srivastava,Abhinav.Srivastava@tatacommunications.com,Human Resource,Corporate HR,Human Resource Information Systems (HRIS) & HR Analytics-Human Resource Information Systems (HRIS) & HR Analytics,,Tata Communications Limited,6007592,"Sadashiv, Prashant",6010718,"Shah, Ishani",India,India,Pune-Dighi,B4-1,JM,08-07-2013,Permanent,Employee,No
6012825,Active,Kalyani,,Vhatkar,Kalyani.Vhatkar@tatacommunications.com,Human Resource,Corporate HR,Human Resource Information Systems (HRIS) & HR Analytics-Human Resource Information Systems (HRIS) & HR Analytics,,Tata Communications Limited,6007592,"Sadashiv, Prashant",6010718,"Shah, Ishani",India,India,Pune-Dighi,B3-1,JM,03-07-2017,Permanent,Employee,No
6015059,Active,Aditi,Vivek,Parab,Aditi.Parab@tatacommunications.com,Human Resource,Corporate HR,Human Resource Information Systems (HRIS) & HR Analytics-Human Resource Information Systems (HRIS) & HR Analytics,,Tata Communications Limited,6007592,"Sadashiv, Prashant",6010718,"Shah, Ishani",India,India,Mumbai - Crescenzo,B3-1,JM,18-06-2018,Permanent,Employee,No
,,,,,,,,,,,,,,,,,,,,,,,
,,,,,,,,,,,,,,,,,,,,,,,
,,,,,,,,,,,,,,,,,,,,,,,
,,,,,,,,,,,,,,,,,,,,,,,
,,,,,,,,,,,,,,,,,,,,,,,
,,,,,,,,,,,,,,,,,,,,,,,
,,,,,,,,,,,,,,,,,,,,,,,
,,,,,,,,,,,,,,,,,,,,,,,
,,,,,,,,,,,,,,,,,,,,,,,
,,,,,,,,,,,,,,,,,,,,,,,
,,,,,,,,,,,,,,,,,,,,,,,
,,,,,,,,,,,,,,,,,,,,,,,
,,,,,,,,,,,,,,,,,,,,,,,
