Username,Employee Status,First Name,Middle Name,Last Name,Business  Email Information Email Address,BU/SSU Description,LOB/Segment Description,Vertical Description,Sub Vertical Description,Entity Description,Reporting Manager User Sys ID,Reporting Manager,BU HR SPOC  Job Relationships User ID,BU HR SPOC  Job Relationships Name,International Region,Facility Country,Facility  Description,Band/Sub Band  Band/Sub Band ID,Job Level,Employment Details Hire Date,Employee Type,Employee Class,Eligibility
6011258,Active,Sudhin,Madhusudhan,Poduwal,Sudhin.Poduwal@tatacommunications.com,TCTSL,Vodafone Idea Limited,Transport consolidation NOC-Transport consolidation NOC,,Tata Communications Transformation Services Limited,T30410,"Desai, Dhaval Arunkumar",T34864,"Sasi, Shalini",India,India,Pune-Dighi,B0-1,JM,42695,Permanent,Employee,NO
6012920,Active,Rohit,,Pilwan,Rohit.Pilwan@tatacommunications.com,"Digital Infrastructure, Application & Security Services",Service Delivery & Management,Customer Project Mgmt-Customer Project Mgmt,India Enterprise-India Enterprise,Tata Communications Limited,T31485,"Majumdar, Anirban",6002851,"Joshi, Gifty",India,India,N.Delhi-Bangla,B2-1,JM,42933,Permanent,Employee,NO
6008621,Active,Rahul,,Singh,Rahul.Singh3@tatacommunications.com,"Digital Infrastructure, Application & Security Services",Service Delivery & Management,Service Delivery-Service Delivery,Provisioning & Config IP-Provisioning & Config IP,Tata Communications Limited,T35419,"Manve, Yogesh Ashok",6002851,"Joshi, Gifty",India,India,Pune-Dighi,B2-1,JM,42401,Permanent,Employee,NO
6012622,Active,Walter,,Strubbe,Walter.Strubbe@tatacommunications.com,Customer Success Group,Sales- Americas,Global Top X-Global Top X,,Tata Communications (America) Inc.,6006661,"Gunawardana, Pathmal",6005512,"Bajpai, Sandeep Suresh",Americas,United States,Home/US/Colorado,B5-1,MM,42900,Permanent,Employee,NO
6013143,Active,Manikandan,,Gunasekaran,Manikandan.Gunasekaran@tatacommunications.com,TCTSL,AT & T,AT & T-AT & T,,Tata Communications Transformation Services Limited,6013025,"Rathod, Gajendra Gulabsingh",6004161,"Nair, Sangeetha",India,India,Chennai-Ambatur,B2-1,JM,42964,Permanent,Employee,NO
6011783,Active,Jagdish,Pundlik,Hugar,Jagdish.Hugar@tatacommunications.com,TCTSL,Vodafone UK,System Integration-System Integration,,Tata Communications Transformation Services Limited,6005864,"Mishra, Alok Jagannath",6007248,"Kalamkar, Mayuri Subhash",India,India,Pune-Dighi,B3-1,JM,42779,Permanent,Employee,NO
6002826,Active,Mohamed,,Kasim,Mohamed.Kasim2@tatacommunications.com,TCTSL,Vodafone UK,Projects and Programmes-Projects and Programmes,,Tata Communications Transformation Services Limited,T80465,"N, Yohendhar",6023612,"Narasimhan, Vengadavan",India,India,Chennai-Ambatur,B2-2,JM,41424,Permanent,Employee,NO
6013239,Terminated,Pooja,,Malhotra,Pooja.Malhotra@tatacommunications.com,TCTSL,AT & T,AT & T-AT & T,,Tata Communications Transformation Services Limited,6006131,"Bangalore, Sunil Babu",6011097,"Singhal, Neha",India,India,Pune-Dighi,B2-2,JM,42968,Permanent,Employee,NO
6010374,Active,Samruddhi,Shashikant,Patil,Samruddhi.Patil@tatacommunications.com,TCTSL,Telus,Wireline Drafting-Wireline Drafting,,Tata Communications Transformation Services Limited,6014091,"Warang, Rakesh Raghunath",6011097,"Singhal, Neha",India,India,Pune-Dighi,B1-1,JM,42583,Permanent,Employee,NO
6011660,Active,Bhushan,Laxman,Chaudhari,Bhushan.Chaudhari2@tatacommunications.com,Global Technology Network & Operation Group,Global Network Operations,UCC Operations-UCC Operations,Infra NOC-Infra NOC,Tata Communications Limited,6006559,"Shukla, Devindra Kumar",6004343,"Kaur, Gagandeep",India,India,Pune-Dighi,B3-2,JM,42758,Permanent,Employee,NO
6005628,Terminated,Praveen,,Venkatesan,Praveen.Venkatesan@tatacommunications.com,TCTSL,Vodafone UK,PIM-PIM,,Tata Communications Transformation Services Limited,T81228,"Tiwari, Naveendra",6023612,"Narasimhan, Vengadavan",India,India,Chennai-Ambatur,B2-1,JM,41991,Permanent,Employee,NO
6014756,Active,Naveen,Kumar,PJ,Naveen.PJ@tatacommunications.com,TCTSL,AT & T,AT & T-AT & T,,Tata Communications Transformation Services Limited,6013012,"Tammisetti, Rama krishna",6004161,"Nair, Sangeetha",India,India,Chennai-Ambatur,B2-2,JM,43255,Permanent,Employee,NO
6014115,Terminated,Frank,,Dale,Frank.Dale@tatacommunications.com,Customer Success Group,Sales- Americas,Large & Complex Deals-Large & Complex Deals,PSS-PSS,Tata Communications (America) Inc.,T502157,"McIntosh, Lawrence",6005512,"Bajpai, Sandeep Suresh",Americas,United States,Home/US/Georgia,B4-2,MM,43122,Permanent,Employee,NO
6011338,Active,Prerna,,Upadhyaya,Prerna.Upadhyaya@tatacommunications.com,TCTSL,Telus,Order and Implementation Management-Order and Implementation Management,,Tata Communications Transformation Services Limited,6006247,"Sam, Soji",6011097,"Singhal, Neha",India,India,Pune-Dighi,B2-1,JM,42709,Permanent,Employee,NO
6003009,Terminated,Pinalkumar,Babubhai,Patel,pinalkumar.patel@tatacommunications.com,TCTSL,TTL,FO - Gujarat-FO - Gujarat,,Tata Communications Transformation Services Limited,T32871,"Choudhary, Pankaj",6011197,"Mehta, Nidhi",India,India,Surat,B3-2,JM,41523,Permanent,Employee,NO
6014058,Active,Dinesh,,Kumar,Dinesh.Kumar5@tatacommunications.com,"Digital Infrastructure, Application & Security Services",Information Technology,IT Governance & Digital-IT Governance & Digital,,Tata Communications Limited,6007981,"Gulati, Saurabh",6013048,"Shah, Mitali",India,India,Mumbai-Fort,B4-1,JM,43095,Permanent,Employee,NO
6001544,Active,Surendran,,Kaliparamban,Surendran.kaliparamban@tatacommunications.com,Corporate Services,Physical & Environmental Security,P&E Security-P&E Security,,Tata Communications Limited,T34575,"Conjeeveram, Satyanarayan",6010718,"Shah, Ishani",India,India,HYD-Madhapur,B3-2,JM,41092,Permanent,Employee,NO
6011750,Active,Amol,Uttam,Sake,Amol.Sake@tatacommunications.com,Global Technology Network & Operation Group,"Int Txn, Voice n Mobile",Voice TAC & Mobility-Voice TAC & Mobility,Mobility & RTSM-Mobility & RTSM,Tata Communications Limited,T80082,"Parshuram, Mayur Gaonkar",6004343,"Kaur, Gagandeep",India,India,Pune-Dighi,B2-1,JM,42772,Permanent,Employee,NO
6015313,Active,Dhanraj,Vedanth,Raghunathan,Dhanraj.Raghunathan@tatacommunications.com,Global Technology Network & Operation Group,Global IP and Ethernet Engineering,Enterprise Network Engineering-Enterprise Network Engineering,,Tata Communications Limited,6001656,"Ramanujam, Sriram",6004343,"Kaur, Gagandeep",India,India,Chennai - Prince Info City II,B2-1,JM,43290,Permanent,Employee,NO
6006502,Active,Vishal,Keda,Gaikwad,Vishal.Gaikwad@tatacommunications.com,TCTSL,Telus,Centrex Assignment-Centrex Assignment,,Tata Communications Transformation Services Limited,T81071,"Kumar, Ramesh",6011097,"Singhal, Neha",India,India,Pune-Dighi,B2-1,JM,42093,Permanent,Employee,NO
T81989,Active,Saurabh,,Goswami,saurabh.goswami@tatacommunications.com,TCTSL,Telus,Network Logical Engineering-Network Logical Engineering,,Tata Communications Transformation Services Limited,T81153,"Kulkarni, Amit P",6011097,"Singhal, Neha",India,India,Pune-Dighi,B3-1,JM,40952,Permanent,Employee,NO
6005037,Active,Ajay,Ramchandra,Phadtare,Ajay.Phadtare@tatacommunications.com,TCTSL,Bell Canada,Project-Project,,Tata Communications Transformation Services Limited,T81281,"Lotliker, Sajjan",6011097,"Singhal, Neha",India,India,Pune-Dighi,B2-1,JM,41897,Permanent,Employee,NO
6008323,Active,Mahesh,Balaso,Gaikwad,Mahesh.Gaikwad4@tatacommunications.com,TCTSL,TTL,FO - ROM-FO - ROM,,Tata Communications Transformation Services Limited,6003311,"Suryavanshi, Santosh Chandrahas",6011197,"Mehta, Nidhi",India,India,Solapur,B2-1,JM,42345,Permanent,Employee,NO
6002802,Active,Priyanka,,Dey,Priyanka.Dey@tatacommunications.com,TCPSL,ATM Deployment,Total Implementation Solutions-Total Implementation Solutions,,Tata Communications Payment Solutions Limited,T36694,"Sahoo, Debasis",T34825,"Mekonda, Anand Shankar",India,India,KOL-Ultadanga,B2-2,JM,43395,Permanent,Employee,NO
T700856,Active,Ian,,Boatman,ian.boatman@tatacommunications.com,Finance & Accounts,CFO (Office),CFO (Office)-CFO (Office),,Tata Communications (Bermuda) Limited,6006766,"Advani, Pratibha Khandelwal",6015939,"Pal, Priyanju",Americas,United States,Bermuda,B8-1,TM,37834,Permanent,Employee,NO
6004802,Active,Dattatray,Bharat,Anbhule,Dattatray.Anbhule@tatacommunications.com,Global Technology Network & Operation Group,Global Service Operations,India Service Operations-India Service Operations,Carrier Desk-Carrier Desk,Tata Communications Limited,T81236,"Gadgil, Kapil P",6004343,"Kaur, Gagandeep",India,India,Pune-Dighi,B2-2,JM,41876,Permanent,Employee,NO
6015425,Active,Eugin Anasdhas,,Anthony Muthu,Eugin.Anasdhas@tatacommunications.com,"Digital Infrastructure, Application & Security Services",Global Service Management Centre,GSMC Operations-GSMC Operations,,Tata Communications Limited,6005207,"Chandran, Sajin",6012067,"Bajpai, Manu",India,India,Chennai - Jayant Tech Park,B2-1,JM,43297,Permanent,Employee,NO
6014427,Active,Kshitij,,Sinha,Kshitij.Sinha@tatacommunications.com,"Digital Infrastructure, Application & Security Services",Global Service Management Centre,GSMC Operations-GSMC Operations,,Tata Communications Limited,T31686,"S V, Shivakumar",6012067,"Bajpai, Manu",India,India,N.Delhi-GK1,B3-2,JM,43199,Permanent,Employee,NO
T303225,Active,David,,Ryan,dave@tatacommunications.com,Legal,Corporate Legal,Business & Legal Operations-Business & Legal Operations,,Tata Communications (America) Inc.,T303256,"Freeman Jr, John Randall",6015625,"De, Aratrika",Americas,United States,Herndon VA,B8-1,TM,38131,Permanent,Employee,NO
6014605,Active,Joseph,,Luginski,Joseph.Luginski@tatacommunications.com,Customer Success Group,Sales- Americas,Partner-Partner,,Tata Communications (America) Inc.,T500683,"Anand, Gaurav",6005512,"Bajpai, Sandeep Suresh",Americas,United States,Home/US/Michigan,B4-1,JM,43206,Permanent,Employee,NO
6009726,Active,Reshma,Ajit,Bandekar,Reshma.Bandekar@tatacommunications.com,TCTSL,Telus,Cloud Collaboration & Skype Bus-Cloud Collaboration and Skype Business,,Tata Communications Transformation Services Limited,T81494,"Mandlekar, Azhar",6011097,"Singhal, Neha",India,India,Pune-Dighi,B1-1,JM,42485,Permanent,Employee,NO
6021983,Active,Raajkumar,,Chensooriyan,raajkumar.chensooriyan@tatacommunications.com,"Digital Infrastructure, Application & Security Services",Business Transformation,Business Transformation-Business Transformation,,Tata Communications Limited,6014344,"Chheda, Nikunj Dhirajlal",6013048,"Shah, Mitali",India,India,Chennai - Jayant Tech Park,B3-1,JM,43402,Permanent,Employee,NO
6010808,Active,Saju,,Krishnan,Saju.Krishnan@tatacommunications.com,"Digital Infrastructure, Application & Security Services",Global Service Management Centre,GSMC Operations-GSMC Operations,,Tata Communications Limited,6010060,"Sivajothi, Ravikumar",6012067,"Bajpai, Manu",India,India,Chennai - Jayant Tech Park,B2-1,JM,42632,Permanent,Employee,NO
6015609,Active,Mehnosh,Rustom,Ruttonji,Mehnosh.Ruttonji@tatacommunications.com,TCTSL,AT & T,AT & T-AT & T,,Tata Communications Transformation Services Limited,6015585,"Gharami, Debasish",6004161,"Nair, Sangeetha",India,India,BGL-Koramangala,B3-1,JM,43325,Permanent,Employee,NO
6011980,Active,Himanshu,Girish,Kumar,himanshu.kumar@tatacommunications.com,Customer Success Group,UBS,Trading Desk-Trading Desk,,Tata Communications Limited,T31903,"Garsund, Navin Babu",6015942,"Agarwal, Shivani",India,India,Mumbai-BKC,B4-1,JM,42808,Permanent,Employee,NO
6012876,Active,Monica,,Umesh,Monica.Umesh@tatacommunications.com,"Business Collaboration , Mobility & IoT Solutions",India IoT Solutions,Business Development-Business Development,,Tata Communications Limited,T80176,"Shridhar, VS",6010718,"Shah, Ishani",India,India,Chennai - Jayant Tech Park,B4-2,MM,42926,Permanent,Employee,NO
6004946,Active,Jean,,Rodier,Jean.Rodier@tatacommunications.com,"Business Collaboration , Mobility & IoT Solutions",Engineering BCMIoT Sols,Mobility Services Engineering-Mobility Services Engineering,,Tata Communications (Canada) Limited,T104003,"Kobal, Jean-Pierre",6010718,"Shah, Ishani",Americas,Canada,Montreal,B3-2,JM,41897,Permanent,Employee,NO
6022389,Terminated,Narayana,,Kelluru,narayana.kelluru@tatacommunications.com,"Digital Infrastructure, Application & Security Services",Business Transformation,Business Transformation-Business Transformation,,Tata Communications Limited,6005186,"Kumar, Uday Narayan",6013048,"Shah, Mitali",India,India,Chennai - Jayant Tech Park,B2-2,JM,43439,Permanent,Employee,NO
6012183,Active,Rajarshi,,Roy,Rajarshi.Roy@tatacommunications.com,TCTSL,Vodafone UK,PIM-PIM,,Tata Communications Transformation Services Limited,6007116,"Gnanaskandan, Raghuraman",6007248,"Kalamkar, Mayuri Subhash",India,India,Pune-Dighi,B2-1,JM,42828,Permanent,Employee,NO
6009132,Active,Bommidi,Kumar,Roop,Bommidi.Roop@tatacommunications.com,TCTSL,TTL SOC,Incident Management-Incident Management,Managed Service Desk-Managed Service Desk,Tata Communications Transformation Services Limited,6009419,"Kumar, Manoj Madrekar",T34864,"Sasi, Shalini",India,India,HYD-Gyanpeeth,B2-1,JM,42422,Permanent,Employee,NO
