Username,Employee Status,First Name,Middle Name,Last Name,Business  Email Information Email Address,BU/SSU Description,LOB/Segment Description,Vertical Description,Sub Vertical Description,Entity Description,Reporting Manager User Sys ID,Reporting Manager,BU HR SPOC  Job Relationships User ID,BU HR SPOC  Job Relationships Name,International Region,Facility Country,Facility  Description,Band/Sub Band  Band/Sub Band ID,Job Level,Employment Details Hire Date,Employee Type,Employee Class,Eligibility
T33059,Active,MANJUNATH,NULL,HG,manjunath.hg@tatacommunications.com,Global Technology Network & Operation Group,Global Network Services,"Global Network Partnership, Offnet Access Strategy & management","ASP - India, Delivery (India)",Tata Communications Limited,T34921,"Gangurde, Gaurav Ramesh",6004343,"Kaur, Gagandeep",India,India,BGL-VSB,B3-2,JM,24-10-2007,Permanent,Employee,yes
T33061,Active,Rajesh,Tukaram,Panchal,rajesh.panchal@tatacommunications.com,"Digital Infrastructure, Application & Security Services",Business Excellence,Analytics,NULL,Tata Communications Limited,T32189,"Kumar, Arpen",6012067,"Bajpai, Manu",India,India,Mumbai-Fort,B3-1,JM,22-10-2007,Permanent,Employee,yes
T33223,Active,Kaviarasu,NULL,K,kaviarasu.k@tatacommunications.com,TCTSL,TCL,FO - KAR,RF,Tata Communications Transformation Services Limited,T31168,"Y, Gangadhara Rao",T31303,"Saxena, Vishal",India,India,BGL-KIADB,B3-1,JM,05-12-2007,Permanent,Employee,yes
T33327,Active,Omkar,Milind,Deshmukh,omkar.deshmukh@tatacommunications.com,Global Technology Network & Operation Group,Global Network Operations,Network SQM,IP - SQM,Tata Communications Limited,T18187,"Ranganadham, Srinivasarao",6004343,"Kaur, Gagandeep",India,India,Pune-Dighi,B4-1,JM,02-01-2008,Permanent,Employee,yes
T33356,Active,Suvajit,NULL,Chaki,suvajit.chaki@tatacommunications.com,Customer Success Group,Sales- Europe,Direct Touch,NULL,Tata Communications (UK) Limited,T307728,"Simpson, Philip",6007561,"Mohanty, Preeta",Europe,United Kingdom,Upper Thames Street,B4-2,MM,18-01-2008,Permanent,Employee,yes
T33366,Active,Ritesh,Kumar,Gupta,ritesh.gupta@tatacommunications.com,Customer Success Group,Service Delivery & Management,Service Delivery,Onnet Service Delivery,Tata Communications Limited,T3186,"Chatterjee, Baidya Nath",6002851,"Joshi, Gifty",India,India,N.Delhi-Bangla,B3-2,JM,28-01-2008,Permanent,Employee,yes
T33415,Active,Deepak,NULL,Mittal,deepak.mittal@tatacommunications.com,TCTSL,TCL,SQM,NULL,Tata Communications Transformation Services Limited,T33425,"Sonker, Neeraj",6007333,"Chandra, Mridul",India,India,Pune-Dighi,B6-1,SM,01-02-2008,Permanent,Employee,yes
T33452,Active,Niraj,NULL,Thaker,niraj.thaker@tatacommunications.com,Global Technology Network & Operation Group,Global Network Operations,IP NOC,IP - NOC,Tata Communications Limited,T19874,"Satpute, Bhalchandra",6004343,"Kaur, Gagandeep",India,India,Pune-Dighi,B3-2,JM,18-02-2008,Permanent,Employee,yes
T33459,Active,Ashwin,NULL,Pathak,ashwin.pathak@tatacommunications.com,Customer Success Group,Sales- Americas,Solutions Engineering,NULL,Tata Communications (America) Inc.,T307596,"Rekapalli, Phrithvi Krishna",6005512,"Bajpai, Sandeep Suresh",Americas,United States,Santa Clara Sales Office,B4-1,JM,22-02-2008,Permanent,Employee,yes
